^C:\USERS\KOSTGHOST\DOCUMENTS\VISUAL STUDIO 2015\PROJECTS\GIT\OPENCVPROJECTS\TASK2\X64\RELEASE\TASK2.OBJ
C:\USERS\KOSTGHOST\DOCUMENTS\VISUAL STUDIO 2015\PROJECTS\GIT\OPENCVPROJECTS\X64\RELEASE\TASK2.EXE
C:\USERS\KOSTGHOST\DOCUMENTS\VISUAL STUDIO 2015\PROJECTS\GIT\OPENCVPROJECTS\X64\RELEASE\TASK2.IPDB
C:\USERS\KOSTGHOST\DOCUMENTS\VISUAL STUDIO 2015\PROJECTS\GIT\OPENCVPROJECTS\X64\RELEASE\TASK2.IOBJ
C:\USERS\KOSTGHOST\DOCUMENTS\VISUAL STUDIO 2015\PROJECTS\GIT\OPENCVPROJECTS\X64\RELEASE\TASK2.PDB
